<svg width="178" height="178" viewBox="0 0 178 178" xmlns="http://www.w3.org/2000/svg">
<style>
  @import url(../style/main.css);
</style>
<path class="favicon" d="M89 177.002C67.8873 177.003 46.7751 169.452 30.0577 154.347C28.9433 153.34 27.8485 152.299 26.7746 151.225C-7.59154 116.859 -7.59154 61.1407 26.7746 26.7746C61.1407 -7.59154 116.859 -7.59154 151.225 26.7746C185.592 61.1407 185.592 116.859 151.225 151.225L120.113 120.113C137.296 102.93 137.296 75.0704 120.113 57.8873C102.93 40.7042 75.0704 40.7042 57.8873 57.8873C40.7042 75.0704 40.7042 102.93 57.8873 120.113L89 89L89 177.002Z"/>
</svg>
